Removed Pin From Net: NetName=GND Pin=P2-1
Removed Pin From Net: NetName=GND Pin=P2-2
Removed Pin From Net: NetName=CAN_H Pin=P2-3
Removed Pin From Net: NetName=SAFETY/AMS_PWR Pin=P2-6
Removed Pin From Net: NetName=+12V_SHDN Pin=P2-7
Removed Pin From Net: NetName=CAN_L Pin=P2-8
Added Pin To Net: NetName=SAFETY/AMS_PWR Pin=P2-1
Added Pin To Net: NetName=+12V_SHDN Pin=P2-2
Added Pin To Net: NetName=CAN_L Pin=P2-3
Added Pin To Net: NetName=GND Pin=P2-6
Added Pin To Net: NetName=GND Pin=P2-7
Added Pin To Net: NetName=CAN_H Pin=P2-8
