Removed Member From Class: ClassName=U_LVS_Distribution Member=L?
Change Component Designator: OldDesignator=L? NewDesignator=L2
Change Component Designator: OldDesignator=L? NewDesignator=L3
Added Member To Class: ClassName=U_LVS_Distribution Member=Component L2 SRP1038A-4R7M
